{
	"version": 2,
	"builds": [
		{ "src": "mqtt.js", "use": "@now/node" },
		{ "src": "./models/**", "use": "@now/static" }
	],
	"alias": "mqtt-trackme",
	"name": "mqtt",
	"routes": [
	  {
		"src": "/send-command",
		"dest": "mqtt.js",
		"methods": ["POST"]
	  },
	  {
		"src": "/sensor-data",
		"dest": "mqtt.js",
		"methods": ["PUT"]
	  },
	  {
		"src": "/status",
		"dest": "mqtt.js",
		"methods": ["GET"]
	  }
	  
	],
	"env": {
		"MONGO_URL": "mongodb+srv://kolorunnife:P3-nJeJGCu7cB7V@sit209-mefaq.mongodb.net/sit209?retryWrites=true&w=majority",
		"URL": "mqtt://postman.cloudmqtt.com:10899",
		"USERSNAME": "uufntwcv",
		"PASSWORD": "erqIG7SDmUWO",
		"PORT": "80"
	}
  }